{
  "project_info": {
    "project_number": "882879915584",
    "firebase_url": "https://drugindex-37524.firebaseio.com",
    "project_id": "drugindex-37524",
    "storage_bucket": "drugindex-37524.appspot.com"
  },
  "client": [
    {
      "client_info": {
        "mobilesdk_app_id": "1:882879915584:android:b4d5f2e20329b8ae",
        "android_client_info": {
          "package_name": "com.dip.drugindex"
        }
      },
      "oauth_client": [
        {
          "client_id": "882879915584-ue5jo59ce804b3dd76vivvslgdjkkr1m.apps.googleusercontent.com",
          "client_type": 1,
          "android_info": {
            "package_name": "com.dip.drugindex",
            "certificate_hash": "ba5e556dda9b3297d814a51c9b09ad42daf0d4da"
          }
        },
        {
          "client_id": "882879915584-sc37pob6c56pf86kf1990td2pkihsd09.apps.googleusercontent.com",
          "client_type": 3
        }
      ],
      "api_key": [
        {
          "current_key": "AIzaSyD2IdY9UQq23Q_boABXqc0finQwmGF0spY"
        }
      ],
      "services": {
        "analytics_service": {
          "status": 1
        },
        "appinvite_service": {
          "status": 2,
          "other_platform_oauth_client": [
            {
              "client_id": "882879915584-sc37pob6c56pf86kf1990td2pkihsd09.apps.googleusercontent.com",
              "client_type": 3
            }
          ]
        },
        "ads_service": {
          "status": 2
        }
      }
    }
  ],
  "configuration_version": "1"
}